<svg xmlns="http://www.w3.org/2000/svg" viewBox="0 0 576 512" width="576" height="512">
	<style>
		tspan { white-space:pre }
		.shp0 { fill: #ffffff } 
	</style>
	<path id="Layer" fill-rule="evenodd" class="shp0" d="M544 64L544 448L560 448C568.84 448 576 455.16 576 464L576 496C576 504.84 568.84 512 560 512L320 512L320 432C320 423.2 312.8 416 304 416L272 416C263.2 416 256 423.2 256 432L256 512L16 512C7.16 512 0 504.84 0 496L0 464C0 455.16 7.16 448 16 448L31.98 448L31.98 64L16 64C7.16 64 0 56.84 0 48L0 16C0 7.16 7.16 0 16 0L560 0C568.84 0 576 7.16 576 16L576 48C576 56.84 568.84 64 560 64L544 64ZM256 108.8L256 147.2C256 153.6 262.4 160 268.8 160L307.2 160C313.6 160 320 153.6 320 147.2L320 108.8C320 102.4 313.6 96 307.2 96L268.8 96C262.4 96 256 102.4 256 108.8ZM256 204.8L256 243.2C256 249.6 262.4 256 268.8 256L307.2 256C313.6 256 320 249.6 320 243.2L320 204.8C320 198.4 313.6 192 307.2 192L268.8 192C262.4 192 256 198.4 256 204.8ZM128 147.2C128 153.6 134.4 160 140.8 160L179.2 160C185.6 160 192 153.6 192 147.2L192 108.8C192 102.4 185.6 96 179.2 96L140.8 96C134.4 96 128 102.4 128 108.8L128 147.2ZM192 243.2L192 204.8C192 198.4 185.6 192 179.2 192L140.8 192C134.4 192 128 198.4 128 204.8L128 243.2C128 249.6 134.4 256 140.8 256L179.2 256C185.6 256 192 249.6 192 243.2ZM384 384C384 330.98 341.02 288 288 288C234.98 288 192 330.98 192 384L384 384ZM448 204.8C448 198.4 441.6 192 435.2 192L396.8 192C390.4 192 384 198.4 384 204.8L384 243.2C384 249.6 390.4 256 396.8 256L435.2 256C441.6 256 448 249.6 448 243.2L448 204.8ZM448 108.8C448 102.4 441.6 96 435.2 96L396.8 96C390.4 96 384 102.4 384 108.8L384 147.2C384 153.6 390.4 160 396.8 160L435.2 160C441.6 160 448 153.6 448 147.2L448 108.8Z" />
</svg>